發文最佳時機_書面報告
…
繪出文字雲

data(stop_words)
colnames(tags)=c("no","word")
tags=tags%>%
  anti_join(stop_words)

token=tags%>%
  group_by()%>%
  count(word,sort=TRUE)%>%
  ungroup()

token

## # A tibble: 1,150 x 2
##    word                       n
##    <chr>                  <int>
##  1 machinelearning           39
##  2 artificialintelligence    37
##  3 ai                        27
##  4 blockchain                20
##  5 startup                   20
##  6 bigdata                   18
##  7 tech                      17
##  8 datascience               16
##  9 technology                16
## 10 development               15
## # ... with 1,140 more rows
…
